%!PS-Adobe-3.0
%%Creator: graphviz version 2.38.0 (20140413.2041)
%%Title: %3
%%Pages: (atend)
%%BoundingBox: (atend)
%%EndComments
save
%%BeginProlog
/DotDict 200 dict def
DotDict begin

/setupLatin1 {
mark
/EncodingVector 256 array def
 EncodingVector 0

ISOLatin1Encoding 0 255 getinterval putinterval
EncodingVector 45 /hyphen put

% Set up ISO Latin 1 character encoding
/starnetISO {
        dup dup findfont dup length dict begin
        { 1 index /FID ne { def }{ pop pop } ifelse
        } forall
        /Encoding EncodingVector def
        currentdict end definefont
} def
/Times-Roman starnetISO def
/Times-Italic starnetISO def
/Times-Bold starnetISO def
/Times-BoldItalic starnetISO def
/Helvetica starnetISO def
/Helvetica-Oblique starnetISO def
/Helvetica-Bold starnetISO def
/Helvetica-BoldOblique starnetISO def
/Courier starnetISO def
/Courier-Oblique starnetISO def
/Courier-Bold starnetISO def
/Courier-BoldOblique starnetISO def
cleartomark
} bind def

%%BeginResource: procset graphviz 0 0
/coord-font-family /Times-Roman def
/default-font-family /Times-Roman def
/coordfont coord-font-family findfont 8 scalefont def

/InvScaleFactor 1.0 def
/set_scale {
       dup 1 exch div /InvScaleFactor exch def
       scale
} bind def

% styles
/solid { [] 0 setdash } bind def
/dashed { [9 InvScaleFactor mul dup ] 0 setdash } bind def
/dotted { [1 InvScaleFactor mul 6 InvScaleFactor mul] 0 setdash } bind def
/invis {/fill {newpath} def /stroke {newpath} def /show {pop newpath} def} bind def
/bold { 2 setlinewidth } bind def
/filled { } bind def
/unfilled { } bind def
/rounded { } bind def
/diagonals { } bind def
/tapered { } bind def

% hooks for setting color 
/nodecolor { sethsbcolor } bind def
/edgecolor { sethsbcolor } bind def
/graphcolor { sethsbcolor } bind def
/nopcolor {pop pop pop} bind def

/beginpage {	% i j npages
	/npages exch def
	/j exch def
	/i exch def
	/str 10 string def
	npages 1 gt {
		gsave
			coordfont setfont
			0 0 moveto
			(\() show i str cvs show (,) show j str cvs show (\)) show
		grestore
	} if
} bind def

/set_font {
	findfont exch
	scalefont setfont
} def

% draw text fitted to its expected width
/alignedtext {			% width text
	/text exch def
	/width exch def
	gsave
		width 0 gt {
			[] 0 setdash
			text stringwidth pop width exch sub text length div 0 text ashow
		} if
	grestore
} def

/boxprim {				% xcorner ycorner xsize ysize
		4 2 roll
		moveto
		2 copy
		exch 0 rlineto
		0 exch rlineto
		pop neg 0 rlineto
		closepath
} bind def

/ellipse_path {
	/ry exch def
	/rx exch def
	/y exch def
	/x exch def
	matrix currentmatrix
	newpath
	x y translate
	rx ry scale
	0 0 1 0 360 arc
	setmatrix
} bind def

/endpage { showpage } bind def
/showpage { } def

/layercolorseq
	[	% layer color sequence - darkest to lightest
		[0 0 0]
		[.2 .8 .8]
		[.4 .8 .8]
		[.6 .8 .8]
		[.8 .8 .8]
	]
def

/layerlen layercolorseq length def

/setlayer {/maxlayer exch def /curlayer exch def
	layercolorseq curlayer 1 sub layerlen mod get
	aload pop sethsbcolor
	/nodecolor {nopcolor} def
	/edgecolor {nopcolor} def
	/graphcolor {nopcolor} def
} bind def

/onlayer { curlayer ne {invis} if } def

/onlayers {
	/myupper exch def
	/mylower exch def
	curlayer mylower lt
	curlayer myupper gt
	or
	{invis} if
} def

/curlayer 0 def

%%EndResource
%%EndProlog
%%BeginSetup
14 default-font-family set_font
1 setmiterlimit
% /arrowlength 10 def
% /arrowwidth 5 def

% make sure pdfmark is harmless for PS-interpreters other than Distiller
/pdfmark where {pop} {userdict /pdfmark /cleartomark load put} ifelse
% make '<<' and '>>' safe on PS Level 1 devices
/languagelevel where {pop languagelevel}{1} ifelse
2 lt {
    userdict (<<) cvn ([) cvn load put
    userdict (>>) cvn ([) cvn load put
} if

%%EndSetup
setupLatin1
%%Page: 1 1
%%PageBoundingBox: 36 36 943 670
%%PageOrientation: Portrait
0 0 1 beginpage
gsave
36 36 907 634 boxprim clip newpath
1 1 set_scale 0 rotate 40 40 translate
% node1
gsave
0 0 0.82745 nodecolor
16.26 306.26 16.03 16.03 ellipse_path fill
1 setlinewidth
filled
0 0 0 nodecolor
16.26 306.26 16.03 16.03 ellipse_path stroke
0 0 0 nodecolor
14 /Times-Roman set_font
12.76 302.56 moveto 7 (1) alignedtext
grestore
% node23
gsave
0 0 0.82745 nodecolor
137.74 465.26 21.43 21.43 ellipse_path fill
1 setlinewidth
filled
0 0 0 nodecolor
137.74 465.26 21.43 21.43 ellipse_path stroke
0 0 0 nodecolor
14 /Times-Roman set_font
130.74 461.56 moveto 14 (23) alignedtext
grestore
% node1->node23
gsave
1 setlinewidth
0 0 0 edgecolor
newpath 18.7 322.42 moveto
21.43 344.93 29.17 386.01 50.53 413.26 curveto
66.9 434.16 94.19 448.56 113.68 456.82 curveto
stroke
0 0 0 edgecolor
newpath 113.24 458.16 moveto
117.47 458.39 lineto
114.31 455.57 lineto
closepath fill
1 setlinewidth
solid
0 0 0 edgecolor
newpath 113.24 458.16 moveto
117.47 458.39 lineto
114.31 455.57 lineto
closepath stroke
0 0 0 edgecolor
10 /Times-Roman set_font
51.03 452.26 moveto 47 ($       15, 16) alignedtext
grestore
% node3
gsave
0 0 0.82745 nodecolor
137.74 410.26 16.03 16.03 ellipse_path fill
1 setlinewidth
filled
0 0 0 nodecolor
137.74 410.26 16.03 16.03 ellipse_path stroke
0 0 0 nodecolor
14 /Times-Roman set_font
134.24 406.56 moveto 7 (3) alignedtext
grestore
% node1->node3
gsave
1 setlinewidth
0 0 0 edgecolor
newpath 22.34 321.47 moveto
27.56 335.18 36.88 355.14 50.53 368.26 curveto
69.83 386.82 98.91 398.64 117.86 404.86 curveto
stroke
0 0 0 edgecolor
newpath 117.74 406.29 moveto
121.98 406.18 lineto
118.59 403.63 lineto
closepath fill
1 setlinewidth
solid
0 0 0 edgecolor
newpath 117.74 406.29 moveto
121.98 406.18 lineto
118.59 403.63 lineto
closepath stroke
0 0 0 edgecolor
10 /Times-Roman set_font
54.03 401.26 moveto 41 (A        0, 1) alignedtext
grestore
% node12
gsave
0 0 0.82745 nodecolor
137.74 109.26 21.43 21.43 ellipse_path fill
1 setlinewidth
filled
0 0 0 nodecolor
137.74 109.26 21.43 21.43 ellipse_path stroke
0 0 0 nodecolor
14 /Times-Roman set_font
130.74 105.56 moveto 14 (12) alignedtext
grestore
% node1->node12
gsave
1 setlinewidth
0 0 0 edgecolor
newpath 18.25 290.02 moveto
20.9 251.5 29.49 156.09 50.53 133.26 curveto
66.09 116.38 92.43 110.99 111.9 109.45 curveto
stroke
0 0 0 edgecolor
newpath 112.3 110.83 moveto
116.2 109.17 lineto
112.11 108.03 lineto
closepath fill
1 setlinewidth
solid
0 0 0 edgecolor
newpath 112.3 110.83 moveto
116.2 109.17 lineto
112.11 108.03 lineto
closepath stroke
0 0 0 edgecolor
10 /Times-Roman set_font
53.03 136.26 moveto 43 (CG      2, 4) alignedtext
grestore
% node10
gsave
0 0 0.82745 nodecolor
519.59 306.26 21.43 21.43 ellipse_path fill
1 setlinewidth
filled
0 0 0 nodecolor
519.59 306.26 21.43 21.43 ellipse_path stroke
0 0 0 nodecolor
14 /Times-Roman set_font
512.59 302.56 moveto 14 (10) alignedtext
grestore
% node1->node10
gsave
1 setlinewidth
0 0 0 edgecolor
newpath 32.54 306.26 moveto
104.02 306.26 405.67 306.26 494.12 306.26 curveto
stroke
0 0 0 edgecolor
newpath 494.17 307.66 moveto
498.17 306.26 lineto
494.17 304.86 lineto
closepath fill
1 setlinewidth
solid
0 0 0 edgecolor
newpath 494.17 307.66 moveto
498.17 306.26 lineto
494.17 304.86 lineto
closepath stroke
0 0 0 edgecolor
10 /Times-Roman set_font
222.95 309.26 moveto 39 (G       3, 4) alignedtext
grestore
% node16
gsave
0 0 0.82745 nodecolor
137.74 247.26 21.43 21.43 ellipse_path fill
1 setlinewidth
filled
0 0 0 nodecolor
137.74 247.26 21.43 21.43 ellipse_path stroke
0 0 0 nodecolor
14 /Times-Roman set_font
130.74 243.56 moveto 14 (16) alignedtext
grestore
% node1->node16
gsave
1 setlinewidth
0 0 0 edgecolor
newpath 29.05 296.18 moveto
35.18 291.25 42.96 285.5 50.53 281.26 curveto
70.76 269.94 95.53 260.59 113.32 254.58 curveto
stroke
0 0 0 edgecolor
newpath 113.88 255.87 moveto
117.23 253.28 lineto
113 253.22 lineto
closepath fill
1 setlinewidth
solid
0 0 0 edgecolor
newpath 113.88 255.87 moveto
117.23 253.28 lineto
113 253.22 lineto
closepath stroke
0 0 0 edgecolor
10 /Times-Roman set_font
50.53 284.26 moveto 48 (TAG     5, 8) alignedtext
grestore
% node4
gsave
0 0 0.82745 nodecolor
347.17 461.26 16.03 16.03 ellipse_path fill
1 setlinewidth
filled
0 0 0 nodecolor
347.17 461.26 16.03 16.03 ellipse_path stroke
0 0 0 nodecolor
14 /Times-Roman set_font
343.67 457.56 moveto 7 (4) alignedtext
grestore
% node2
gsave
0 0 0.82745 nodecolor
347.17 410.26 16.03 16.03 ellipse_path fill
1 setlinewidth
filled
0 0 0 nodecolor
347.17 410.26 16.03 16.03 ellipse_path stroke
0 0 0 nodecolor
14 /Times-Roman set_font
343.67 406.56 moveto 7 (2) alignedtext
grestore
% node7
gsave
0 0 0.82745 nodecolor
347.17 609.26 16.03 16.03 ellipse_path fill
1 setlinewidth
filled
0 0 0 nodecolor
347.17 609.26 16.03 16.03 ellipse_path stroke
0 0 0 nodecolor
14 /Times-Roman set_font
343.67 605.56 moveto 7 (7) alignedtext
grestore
% node19
gsave
0 0 0.82745 nodecolor
519.59 419.26 21.43 21.43 ellipse_path fill
1 setlinewidth
filled
0 0 0 nodecolor
519.59 419.26 21.43 21.43 ellipse_path stroke
0 0 0 nodecolor
14 /Times-Roman set_font
512.59 415.56 moveto 14 (19) alignedtext
grestore
% node9
gsave
0 0 0.82745 nodecolor
519.59 364.26 16.03 16.03 ellipse_path fill
1 setlinewidth
filled
0 0 0 nodecolor
519.59 364.26 16.03 16.03 ellipse_path stroke
0 0 0 nodecolor
14 /Times-Roman set_font
516.09 360.56 moveto 7 (9) alignedtext
grestore
% node22
gsave
0 0 0.82745 nodecolor
347.17 554.26 21.43 21.43 ellipse_path fill
1 setlinewidth
filled
0 0 0 nodecolor
347.17 554.26 21.43 21.43 ellipse_path stroke
0 0 0 nodecolor
14 /Times-Roman set_font
340.17 550.56 moveto 14 (22) alignedtext
grestore
% node13
gsave
0 0 0.82745 nodecolor
347.17 109.26 21.43 21.43 ellipse_path fill
1 setlinewidth
filled
0 0 0 nodecolor
347.17 109.26 21.43 21.43 ellipse_path stroke
0 0 0 nodecolor
14 /Times-Roman set_font
340.17 105.56 moveto 14 (13) alignedtext
grestore
% node5
gsave
0 0 0.82745 nodecolor
347.17 16.26 16.03 16.03 ellipse_path fill
1 setlinewidth
filled
0 0 0 nodecolor
347.17 16.26 16.03 16.03 ellipse_path stroke
0 0 0 nodecolor
14 /Times-Roman set_font
343.67 12.56 moveto 7 (5) alignedtext
grestore
% node11
gsave
0 0 0.82745 nodecolor
690.02 246.26 21.43 21.43 ellipse_path fill
1 setlinewidth
filled
0 0 0 nodecolor
690.02 246.26 21.43 21.43 ellipse_path stroke
0 0 0 nodecolor
14 /Times-Roman set_font
683.02 242.56 moveto 14 (11) alignedtext
grestore
% node21
gsave
0 0 0.82745 nodecolor
877.45 454.26 21.43 21.43 ellipse_path fill
1 setlinewidth
filled
0 0 0 nodecolor
877.45 454.26 21.43 21.43 ellipse_path stroke
0 0 0 nodecolor
14 /Times-Roman set_font
870.45 450.56 moveto 14 (21) alignedtext
grestore
% node6
gsave
0 0 0.82745 nodecolor
877.45 399.26 16.03 16.03 ellipse_path fill
1 setlinewidth
filled
0 0 0 nodecolor
877.45 399.26 16.03 16.03 ellipse_path stroke
0 0 0 nodecolor
14 /Times-Roman set_font
873.95 395.56 moveto 7 (6) alignedtext
grestore
% node14
gsave
0 0 0.82745 nodecolor
690.02 366.26 21.43 21.43 ellipse_path fill
1 setlinewidth
filled
0 0 0 nodecolor
690.02 366.26 21.43 21.43 ellipse_path stroke
0 0 0 nodecolor
14 /Times-Roman set_font
683.02 362.56 moveto 14 (14) alignedtext
grestore
% node15
gsave
0 0 0.82745 nodecolor
690.02 306.26 21.43 21.43 ellipse_path fill
1 setlinewidth
filled
0 0 0 nodecolor
690.02 306.26 21.43 21.43 ellipse_path stroke
0 0 0 nodecolor
14 /Times-Roman set_font
683.02 302.56 moveto 14 (15) alignedtext
grestore
% node17
gsave
0 0 0.82745 nodecolor
347.17 257.26 21.43 21.43 ellipse_path fill
1 setlinewidth
filled
0 0 0 nodecolor
347.17 257.26 21.43 21.43 ellipse_path stroke
0 0 0 nodecolor
14 /Times-Roman set_font
340.17 253.56 moveto 14 (17) alignedtext
grestore
% node8
gsave
0 0 0.82745 nodecolor
347.17 202.26 16.03 16.03 ellipse_path fill
1 setlinewidth
filled
0 0 0 nodecolor
347.17 202.26 16.03 16.03 ellipse_path stroke
0 0 0 nodecolor
14 /Times-Roman set_font
343.67 198.56 moveto 7 (8) alignedtext
grestore
% node3->node1
gsave
1 setlinewidth
dotted
0 0 0 edgecolor
newpath 126.58 397.95 moveto
119.17 389.28 108.7 377.59 98.53 368.26 curveto
77.49 348.97 50.81 329.45 33.88 317.6 curveto
stroke
0 0 0 edgecolor
newpath 34.3 316.18 moveto
30.22 315.05 lineto
32.7 318.48 lineto
closepath fill
1 setlinewidth
solid
0 0 0 edgecolor
newpath 34.3 316.18 moveto
30.22 315.05 lineto
32.7 318.48 lineto
closepath stroke
grestore
% node3->node4
gsave
1 setlinewidth
0 0 0 edgecolor
newpath 153.06 416.53 moveto
160.15 419.47 168.9 422.84 176.95 425.26 curveto
230.36 441.31 295.3 453.02 326.96 458.24 curveto
stroke
0 0 0 edgecolor
newpath 326.84 459.64 moveto
331.02 458.9 lineto
327.3 456.87 lineto
closepath fill
1 setlinewidth
solid
0 0 0 edgecolor
newpath 326.84 459.64 moveto
331.02 458.9 lineto
327.3 456.87 lineto
closepath stroke
0 0 0 edgecolor
10 /Times-Roman set_font
179.45 458.26 moveto 126 (CGATAGCGGTAGA$   2, 16) alignedtext
grestore
% node3->node2
gsave
1 setlinewidth
0 0 0 edgecolor
newpath 154.33 410.26 moveto
191.59 410.26 285.72 410.26 326.65 410.26 curveto
stroke
0 0 0 edgecolor
newpath 326.68 411.66 moveto
330.68 410.26 lineto
326.68 408.86 lineto
closepath fill
1 setlinewidth
solid
0 0 0 edgecolor
newpath 326.68 411.66 moveto
330.68 410.26 lineto
326.68 408.86 lineto
closepath stroke
0 0 0 edgecolor
10 /Times-Roman set_font
176.95 413.26 moveto 131 (ACGATAGCGGTAGA$  1, 16) alignedtext
grestore
% node3->node7
gsave
1 setlinewidth
0 0 0 edgecolor
newpath 150.08 421.58 moveto
153.47 425.59 156.84 430.34 158.95 435.26 curveto
183.31 492.12 135 527.81 176.95 573.26 curveto
216.01 615.57 291.46 614.7 326.9 611.6 curveto
stroke
0 0 0 edgecolor
newpath 327.17 612.98 moveto
331.02 611.21 lineto
326.9 610.19 lineto
closepath fill
1 setlinewidth
solid
0 0 0 edgecolor
newpath 327.17 612.98 moveto
331.02 611.21 lineto
326.9 610.19 lineto
closepath stroke
0 0 0 edgecolor
10 /Times-Roman set_font
186.95 616.26 moveto 111 (TAGCGGTAGA$      5, 16) alignedtext
grestore
% node3->node22
gsave
1 setlinewidth
0 0 0 edgecolor
newpath 149.85 421.69 moveto
153.22 425.7 156.64 430.43 158.95 435.26 curveto
175.41 469.72 149.86 492.36 176.95 519.26 curveto
215.72 557.75 284.95 559.2 321.69 556.82 curveto
stroke
0 0 0 edgecolor
newpath 322.12 558.19 moveto
326.01 556.51 lineto
321.92 555.4 lineto
closepath fill
1 setlinewidth
solid
0 0 0 edgecolor
newpath 322.12 558.19 moveto
326.01 556.51 lineto
321.92 555.4 lineto
closepath stroke
0 0 0 edgecolor
10 /Times-Roman set_font
218.95 561.26 moveto 47 ($       15, 16) alignedtext
grestore
% node18
gsave
0 0 0.82745 nodecolor
347.17 355.26 21.43 21.43 ellipse_path fill
1 setlinewidth
filled
0 0 0 nodecolor
347.17 355.26 21.43 21.43 ellipse_path stroke
0 0 0 nodecolor
14 /Times-Roman set_font
340.17 351.56 moveto 14 (18) alignedtext
grestore
% node3->node18
gsave
1 setlinewidth
0 0 0 edgecolor
newpath 153.08 404.07 moveto
160.18 401.16 168.93 397.77 176.95 395.26 curveto
227.69 379.4 288.69 366.43 321.83 359.88 curveto
stroke
0 0 0 edgecolor
newpath 322.47 361.19 moveto
326.12 359.04 lineto
321.93 358.44 lineto
closepath fill
1 setlinewidth
solid
0 0 0 edgecolor
newpath 322.47 361.19 moveto
326.12 359.04 lineto
321.93 358.44 lineto
closepath stroke
0 0 0 edgecolor
10 /Times-Roman set_font
222.95 398.26 moveto 39 (G       7, 8) alignedtext
grestore
% node18->node19
gsave
1 setlinewidth
0 0 0 edgecolor
newpath 365.64 366.38 moveto
372.01 370.15 379.37 374.18 386.38 377.26 curveto
422.99 393.39 467.76 406.27 494.68 413.33 curveto
stroke
0 0 0 edgecolor
newpath 494.62 414.76 moveto
498.84 414.41 lineto
495.33 412.05 lineto
closepath fill
1 setlinewidth
solid
0 0 0 edgecolor
newpath 494.62 414.76 moveto
498.84 414.41 lineto
495.33 412.05 lineto
closepath stroke
0 0 0 edgecolor
10 /Times-Roman set_font
408.38 413.26 moveto 50 (A$     14, 16) alignedtext
grestore
% node18->node9
gsave
1 setlinewidth
0 0 0 edgecolor
newpath 368.39 356.33 moveto
401.3 358.07 466.05 361.49 498.73 363.21 curveto
stroke
0 0 0 edgecolor
newpath 498.86 364.62 moveto
502.93 363.44 lineto
499.01 361.83 lineto
closepath fill
1 setlinewidth
solid
0 0 0 edgecolor
newpath 498.86 364.62 moveto
502.93 363.44 lineto
499.01 361.83 lineto
closepath stroke
0 0 0 edgecolor
10 /Times-Roman set_font
386.38 365.26 moveto 94 (CGGTAGA$        8, 16) alignedtext
grestore
% node18->node10
gsave
1 setlinewidth
dotted
0 0 0 edgecolor
newpath 367.88 349.6 moveto
393.72 342.18 440.44 328.75 480.38 317.26 curveto
485.04 315.92 490.03 314.49 494.81 313.11 curveto
stroke
0 0 0 edgecolor
newpath 495.3 314.43 moveto
498.76 311.97 lineto
494.53 311.74 lineto
closepath fill
1 setlinewidth
solid
0 0 0 edgecolor
newpath 495.3 314.43 moveto
498.76 311.97 lineto
494.53 311.74 lineto
closepath stroke
grestore
% node12->node13
gsave
1 setlinewidth
0 0 0 edgecolor
newpath 159.01 109.26 moveto
197.35 109.26 280.34 109.26 321.71 109.26 curveto
stroke
0 0 0 edgecolor
newpath 321.82 110.66 moveto
325.82 109.26 lineto
321.82 107.86 lineto
closepath fill
1 setlinewidth
solid
0 0 0 edgecolor
newpath 321.82 110.66 moveto
325.82 109.26 lineto
321.82 107.86 lineto
closepath stroke
0 0 0 edgecolor
10 /Times-Roman set_font
207.45 112.26 moveto 70 (GTAGA$ 10, 16) alignedtext
grestore
% node12->node5
gsave
1 setlinewidth
0 0 0 edgecolor
newpath 143.57 88.72 moveto
148.77 71.48 158.85 47.73 176.95 35.26 curveto
222.86 3.66 292.93 8.3 326.67 12.94 curveto
stroke
0 0 0 edgecolor
newpath 326.83 14.38 moveto
330.99 13.56 lineto
327.23 11.61 lineto
closepath fill
1 setlinewidth
solid
0 0 0 edgecolor
newpath 326.83 14.38 moveto
330.99 13.56 lineto
327.23 11.61 lineto
closepath stroke
0 0 0 edgecolor
10 /Times-Roman set_font
185.45 38.26 moveto 114 (ATAGCGGTAGA$    4, 16) alignedtext
grestore
% node12->node10
gsave
1 setlinewidth
dotted
0 0 0 edgecolor
newpath 157.83 101.83 moveto
197.62 87.39 292.09 58.73 368.38 79.26 curveto
423.96 94.22 446.09 98.04 480.38 144.26 curveto
510.74 185.19 517.41 246.59 518.61 280.85 curveto
stroke
0 0 0 edgecolor
newpath 517.22 280.93 moveto
518.74 284.89 lineto
520.02 280.85 lineto
closepath fill
1 setlinewidth
solid
0 0 0 edgecolor
newpath 517.22 280.93 moveto
518.74 284.89 lineto
520.02 280.85 lineto
closepath stroke
grestore
% node10->node1
gsave
1 setlinewidth
dotted
0 0 0 edgecolor
newpath 506 289.49 moveto
482.7 260.02 429.63 199.95 368.38 177.26 curveto
262.1 137.89 221.42 174.33 116.53 217.26 curveto
84.99 230.17 75.25 232.82 50.53 256.26 curveto
40.82 265.46 32.49 277.99 26.6 288.21 curveto
stroke
0 0 0 edgecolor
newpath 25.28 287.69 moveto
24.54 291.86 lineto
27.72 289.06 lineto
closepath fill
1 setlinewidth
solid
0 0 0 edgecolor
newpath 25.28 287.69 moveto
24.54 291.86 lineto
27.72 289.06 lineto
closepath stroke
grestore
% node10->node11
gsave
1 setlinewidth
0 0 0 edgecolor
newpath 539.58 298.63 moveto
545.7 296.22 552.52 293.58 558.81 291.26 curveto
595.87 277.59 639.31 262.83 665.47 254.08 curveto
stroke
0 0 0 edgecolor
newpath 666.17 255.32 moveto
669.52 252.72 lineto
665.28 252.66 lineto
closepath fill
1 setlinewidth
solid
0 0 0 edgecolor
newpath 666.17 255.32 moveto
669.52 252.72 lineto
665.28 252.66 lineto
closepath stroke
0 0 0 edgecolor
10 /Times-Roman set_font
558.81 294.26 moveto 92 (CGGTAGA$       8, 16) alignedtext
grestore
% node10->node14
gsave
1 setlinewidth
0 0 0 edgecolor
newpath 539.58 313.9 moveto
545.7 316.31 552.52 318.94 558.81 321.26 curveto
595.87 334.94 639.31 349.7 665.47 358.45 curveto
stroke
0 0 0 edgecolor
newpath 665.28 359.86 moveto
669.52 359.8 lineto
666.17 357.21 lineto
closepath fill
1 setlinewidth
solid
0 0 0 edgecolor
newpath 665.28 359.86 moveto
669.52 359.8 lineto
666.17 357.21 lineto
closepath stroke
0 0 0 edgecolor
10 /Times-Roman set_font
569.81 357.26 moveto 70 (GTAGA$ 10, 16) alignedtext
grestore
% node10->node15
gsave
1 setlinewidth
0 0 0 edgecolor
newpath 540.91 306.26 moveto
571.89 306.26 630.86 306.26 664.29 306.26 curveto
stroke
0 0 0 edgecolor
newpath 664.63 307.66 moveto
668.63 306.26 lineto
664.63 304.86 lineto
closepath fill
1 setlinewidth
solid
0 0 0 edgecolor
newpath 664.63 307.66 moveto
668.63 306.26 lineto
664.63 304.86 lineto
closepath stroke
0 0 0 edgecolor
10 /Times-Roman set_font
572.81 309.26 moveto 64 (TAGA$  11, 16) alignedtext
grestore
% node20
gsave
0 0 0.82745 nodecolor
690.02 426.26 21.43 21.43 ellipse_path fill
1 setlinewidth
filled
0 0 0 nodecolor
690.02 426.26 21.43 21.43 ellipse_path stroke
0 0 0 nodecolor
14 /Times-Roman set_font
683.02 422.56 moveto 14 (20) alignedtext
grestore
% node10->node20
gsave
1 setlinewidth
0 0 0 edgecolor
newpath 531.53 324.06 moveto
534.55 328.98 537.81 334.32 540.81 339.26 curveto
548.87 352.56 547.13 358.99 558.81 369.26 curveto
590.06 396.76 636.67 412.77 664.83 420.49 curveto
stroke
0 0 0 edgecolor
newpath 664.61 421.89 moveto
668.84 421.57 lineto
665.34 419.18 lineto
closepath fill
1 setlinewidth
solid
0 0 0 edgecolor
newpath 664.61 421.89 moveto
668.84 421.57 lineto
665.34 419.18 lineto
closepath stroke
0 0 0 edgecolor
10 /Times-Roman set_font
586.31 420.26 moveto 37 (A      4, 5) alignedtext
grestore
% node20->node21
gsave
1 setlinewidth
0 0 0 edgecolor
newpath 711.24 429.47 moveto
717.05 430.38 723.39 431.37 729.23 432.26 curveto
772.57 438.9 823.12 446.41 852.29 450.71 curveto
stroke
0 0 0 edgecolor
newpath 852.28 452.12 moveto
856.44 451.32 lineto
852.68 449.35 lineto
closepath fill
1 setlinewidth
solid
0 0 0 edgecolor
newpath 852.28 452.12 moveto
856.44 451.32 lineto
852.68 449.35 lineto
closepath stroke
0 0 0 edgecolor
10 /Times-Roman set_font
761.23 452.26 moveto 45 ($      15, 16) alignedtext
grestore
% node20->node6
gsave
1 setlinewidth
0 0 0 edgecolor
newpath 711.22 423.32 moveto
747.21 418.08 821.95 407.2 857.23 402.06 curveto
stroke
0 0 0 edgecolor
newpath 857.57 403.43 moveto
861.33 401.47 lineto
857.17 400.66 lineto
closepath fill
1 setlinewidth
solid
0 0 0 edgecolor
newpath 857.57 403.43 moveto
861.33 401.47 lineto
857.17 400.66 lineto
closepath stroke
0 0 0 edgecolor
10 /Times-Roman set_font
729.23 424.26 moveto 109 (TAGCGGTAGA$     5, 16) alignedtext
grestore
% node20->node3
gsave
1 setlinewidth
dotted
0 0 0 edgecolor
newpath 669.51 432.55 moveto
615.39 449.32 458.65 493.37 325.95 486.26 curveto
259.45 482.7 231.87 507.95 176.95 470.26 curveto
162.53 460.37 168.5 449.92 158.95 435.26 curveto
156.76 431.9 154.2 428.45 151.66 425.22 curveto
stroke
0 0 0 edgecolor
newpath 152.73 424.33 moveto
149.13 422.09 lineto
150.55 426.08 lineto
closepath fill
1 setlinewidth
solid
0 0 0 edgecolor
newpath 152.73 424.33 moveto
149.13 422.09 lineto
150.55 426.08 lineto
closepath stroke
grestore
% node16->node17
gsave
1 setlinewidth
0 0 0 edgecolor
newpath 159.15 245.91 moveto
191.04 244.12 254.57 241.9 307.95 248.26 curveto
312.71 248.83 317.74 249.77 322.53 250.82 curveto
stroke
0 0 0 edgecolor
newpath 322.27 252.2 moveto
326.48 251.73 lineto
322.9 249.47 lineto
closepath fill
1 setlinewidth
solid
0 0 0 edgecolor
newpath 322.27 252.2 moveto
326.48 251.73 lineto
322.9 249.47 lineto
closepath stroke
0 0 0 edgecolor
10 /Times-Roman set_font
217.45 251.26 moveto 50 (A$     14, 16) alignedtext
grestore
% node16->node8
gsave
1 setlinewidth
0 0 0 edgecolor
newpath 156.98 237.39 moveto
163.17 234.39 170.23 231.34 176.95 229.26 curveto
229.73 212.98 294.96 206.12 326.82 203.57 curveto
stroke
0 0 0 edgecolor
newpath 327.02 204.96 moveto
330.9 203.25 lineto
326.81 202.17 lineto
closepath fill
1 setlinewidth
solid
0 0 0 edgecolor
newpath 327.02 204.96 moveto
330.9 203.25 lineto
326.81 202.17 lineto
closepath stroke
0 0 0 edgecolor
10 /Times-Roman set_font
195.45 232.26 moveto 94 (CGGTAGA$        8, 16) alignedtext
grestore
% node16->node18
gsave
1 setlinewidth
dotted
0 0 0 edgecolor
newpath 158.08 253.72 moveto
164.09 255.63 170.77 257.63 176.95 259.26 curveto
234.53 274.42 260.01 251.96 307.95 287.26 curveto
322.61 298.05 332.4 316.25 338.41 331.11 curveto
stroke
0 0 0 edgecolor
newpath 337.25 331.98 moveto
340 335.2 lineto
339.85 330.96 lineto
closepath fill
1 setlinewidth
solid
0 0 0 edgecolor
newpath 337.25 331.98 moveto
340 335.2 lineto
339.85 330.96 lineto
closepath stroke
grestore
endpage
showpage
grestore
%%PageTrailer
%%EndPage: 1
%%Trailer
%%Pages: 1
%%BoundingBox: 36 36 943 670
end
restore
%%EOF
